-0.000000 -0.000001 0.000001
-0.015885 -0.003613 0.006788
0.015883 0.003610 -0.006788
0.005298 -0.011191 -0.003264
-0.012814 -0.017063 0.003625
-0.003345 0.000187 -0.001287
-0.005301 0.011189 0.003264
0.003350 -0.000182 0.001286
0.012814 0.017060 -0.003625
0.005968 0.013797 0.195617
-0.002891 -0.000191 0.257305
0.000055 -0.001009 0.266682
-0.011582 -0.008286 0.278717
0.009744 -0.003523 0.263230
-0.002089 0.001173 0.261708
0.008292 -0.001629 0.200985
0.003169 0.012360 0.270653
-0.014794 -0.012329 0.191675
0.014795 0.012331 -0.191676
-0.003169 -0.012357 -0.270652
-0.008292 0.001631 -0.200983
0.002090 -0.001174 -0.261710
-0.009745 0.003522 -0.263229
0.011581 0.008285 -0.278714
-0.000055 0.001009 -0.266684
0.002892 0.000192 -0.257305
-0.005969 -0.013795 -0.195617
0.015747 -0.013001 0.002925
-0.012218 -0.015793 -0.003406
0.041821 0.053764 -0.011982
-0.008343 0.026883 0.001425
-0.067133 -0.018233 0.007838
0.043002 0.013383 -0.006050
0.016404 -0.018859 0.002061
-0.028298 -0.030354 0.002482
0.018575 0.009868 0.003222
-0.023666 -0.031765 0.138847
-0.001813 0.018630 0.274828
-0.038026 -0.022962 0.114913
-0.002695 0.042849 0.113842
0.004230 -0.009991 0.259643
0.008255 0.000202 0.258261
0.014287 -0.009308 0.201179
0.021936 0.002442 0.274935
-0.024371 -0.010482 0.182575
0.012029 0.021067 -0.186572
0.003462 -0.010684 -0.264398
0.042445 0.002977 -0.138986
0.037648 0.018940 -0.114671
-0.012223 -0.017706 -0.268185
-0.036261 0.022954 -0.116306
-0.006359 -0.010660 -0.259781
-0.013503 0.006801 -0.271808
-0.004930 -0.020963 -0.196830
0.000002 -0.000002 0.000001
-0.015883 0.003610 -0.006787
0.015881 -0.003612 0.006788
0.012815 -0.017062 0.003625
-0.005301 -0.011190 -0.003266
0.003345 0.000184 -0.001285
-0.012814 0.017063 -0.003626
-0.003346 -0.000183 0.001286
0.005303 0.011191 0.003263
-0.005971 0.013796 0.195617
-0.000051 -0.001011 0.266682
0.002891 -0.000190 0.257310
-0.009747 -0.003521 0.263231
0.011579 -0.008286 0.278711
0.002091 0.001169 0.261710
0.014795 -0.012331 0.191675
-0.003169 0.012361 0.270652
-0.008293 -0.001627 0.200983
0.008293 0.001628 -0.200983
0.003169 -0.012358 -0.270656
-0.014795 0.012332 -0.191678
-0.002091 -0.001173 -0.261707
-0.011577 0.008282 -0.278712
0.009744 0.003520 -0.263233
-0.002894 0.000193 -0.257306
0.000053 0.001012 -0.266679
0.005970 -0.013795 -0.195614
-0.001949 -0.011806 -0.003332
-0.016225 -0.006746 -0.005135
0.047532 0.035171 0.007950
-0.022316 0.028661 -0.000227
-0.055577 -0.016772 -0.001780
0.045629 0.008383 -0.003988
0.003405 -0.015928 -0.003184
-0.033695 -0.034930 0.007319
0.016679 0.004135 0.004329
-0.027925 -0.039793 0.130426
-0.004400 0.019800 0.282945
-0.030935 -0.024047 0.108642
0.000159 0.042563 0.114735
0.009061 -0.009351 0.276321
0.013646 0.002645 0.256852
0.017642 -0.013353 0.186699
0.017833 0.004582 0.277314
-0.009404 0.007252 0.193088
0.007093 0.008048 -0.188979
0.006852 -0.010865 -0.270292
0.046175 0.005704 -0.131929
0.037929 0.017475 -0.109549
-0.013527 -0.013803 -0.283980
-0.037075 0.021174 -0.112602
-0.008010 -0.006513 -0.255740
-0.016075 0.016885 -0.286725
0.007478 -0.018573 -0.189177
