-0.026
-0.025
0.051
-0.025
0.051
-0.026
0.050
-0.026
-0.026
-0.025
0.051
-0.026
0.050
-0.026
-0.025
-0.026
-0.025
0.051
-0.044
0.044
-0.000
0.044
-0.001
-0.044
-0.000
-0.045
0.044
-0.045
0.001
0.044
0.001
0.043
-0.045
0.044
-0.045
0.000
3.057
3.058
3.057
3.058
3.058
3.057
3.058
3.057
3.057
3.057
3.058
3.058
3.058
3.058
3.057
3.057
3.057
3.057
