0.000
-0.001
-0.001
-0.002
-0.001
-0.000
-0.000
0.000
-0.002
-0.001
0.000
-0.002
0.000
-0.002
-0.000
-0.002
-0.000
-0.000
-0.001
-0.002
-0.004
-0.003
-0.004
-0.002
-0.004
-0.002
-0.002
-0.002
-0.003
-0.002
-0.003
-0.003
-0.001
-0.002
-0.002
-0.004
3.055
3.043
3.064
3.043
3.064
3.055
3.064
3.055
3.043
3.056
3.063
3.043
3.063
3.043
3.056
3.043
3.056
3.063
