0.035
0.043
-0.078
0.043
-0.078
0.035
-0.078
0.035
0.042
0.043
-0.078
0.035
-0.078
0.035
0.043
0.035
0.043
-0.078
0.070
-0.065
-0.004
-0.065
-0.004
0.070
-0.004
0.069
-0.065
0.065
0.005
-0.069
0.004
-0.069
0.065
-0.069
0.065
0.005
3.054
3.054
3.054
3.054
3.054
3.054
3.054
3.054
3.054
3.054
3.054
3.054
3.054
3.054
3.054
3.054
3.054
3.054
