0.017
0.021
-0.038
0.021
-0.037
0.017
-0.038
0.017
0.020
0.021
-0.037
0.017
-0.037
0.017
0.020
0.017
0.021
-0.038
0.034
-0.031
-0.002
-0.031
-0.002
0.034
-0.002
0.033
-0.031
0.031
0.002
-0.033
0.002
-0.034
0.031
-0.033
0.031
0.002
3.052
3.052
3.052
3.052
3.052
3.052
3.052
3.052
3.052
3.052
3.052
3.052
3.052
3.052
3.052
3.052
3.052
3.052
