0.008
0.010
-0.018
0.010
-0.019
0.009
-0.019
0.008
0.010
0.010
-0.018
0.008
-0.018
0.008
0.010
0.008
0.010
-0.018
0.017
-0.015
-0.001
-0.015
-0.001
0.017
-0.001
0.016
-0.015
0.015
0.001
-0.016
0.001
-0.017
0.016
-0.017
0.015
0.001
3.051
3.052
3.052
3.052
3.051
3.051
3.051
3.051
3.052
3.051
3.052
3.052
3.052
3.051
3.051
3.051
3.051
3.052
