0.045
0.055
-0.100
0.055
-0.100
0.045
-0.100
0.045
0.055
0.055
-0.100
0.045
-0.100
0.045
0.055
0.045
0.055
-0.100
0.090
-0.084
-0.006
-0.084
-0.005
0.090
-0.005
0.090
-0.084
0.084
0.006
-0.089
0.006
-0.090
0.084
-0.089
0.084
0.006
3.055
3.055
3.055
3.055
3.055
3.055
3.055
3.055
3.055
3.055
3.055
3.055
3.055
3.055
3.055
3.055
3.055
3.055
