0.030
-0.015
-0.018
-0.015
-0.018
0.031
-0.018
0.031
-0.016
0.029
-0.038
0.008
-0.038
0.008
0.029
0.008
0.029
-0.038
-0.003
0.020
-0.038
0.020
-0.038
-0.002
-0.038
-0.003
0.021
-0.031
-0.015
0.028
-0.015
0.028
-0.031
0.029
-0.031
-0.015
3.049
3.041
3.058
3.041
3.058
3.049
3.058
3.049
3.041
3.056
3.056
3.038
3.056
3.038
3.056
3.038
3.056
3.056
