0.004374 -0.005831 0.003774
-0.004221 -0.000134 0.000007
-0.004680 0.008532 -0.007774
-0.001259 -0.001861 0.003747
0.000624 -0.000668 -0.000001
-0.001965 0.000386 -0.003739
0.000039 -0.000615 -0.000009
-0.000473 0.002145 0.002981
-0.000953 0.000087 0.000017
0.001390 -0.002074 -0.002258
-0.000854 -0.000485 0.000008
-0.000057 0.000765 -0.000001
-0.007113 -0.002070 0.003935
-0.000117 0.001582 -0.003114
0.001434 0.000066 0.000016
0.000084 -0.001004 -0.000001
0.000216 0.000588 -0.000039
0.001430 0.000152 0.002372
-0.013000 -0.006492 -0.025948
-0.007261 -0.004774 -0.023746
-0.017042 -0.000057 -0.026075
-0.017220 -0.000043 -0.026262
-0.017824 0.000059 -0.026336
-0.017255 -0.000084 -0.025732
-0.012543 0.003507 -0.027360
-0.016944 0.000026 -0.025549
-0.017079 0.000085 -0.026325
0.000121 0.014549 -0.029678
0.010682 0.010454 -0.026659
0.008586 0.015089 -0.025815
0.008136 0.014762 -0.025718
0.008232 0.014766 -0.025512
0.008561 0.014939 -0.026412
0.001032 0.014661 -0.026422
0.008669 0.014716 -0.026229
0.008509 0.015385 -0.026080
0.012839 -0.008761 -0.029383
0.008401 -0.015344 -0.026359
0.008539 -0.014609 -0.025484
0.002744 -0.014182 -0.026936
0.012299 -0.008095 -0.024953
0.008707 -0.014847 -0.026382
0.008744 -0.014944 -0.025800
0.008317 -0.014861 -0.026259
0.008920 -0.014249 -0.025511
0.014484 0.004796 0.026480
0.015088 -0.008024 0.031183
0.017330 -0.000216 0.025807
0.017204 -0.000040 0.026320
0.016939 -0.000161 0.025564
0.016835 -0.000690 0.025435
0.013128 -0.006555 0.025527
0.017450 0.000085 0.026260
0.017015 0.000148 0.026266
-0.008668 -0.004694 0.026489
-0.012149 -0.008251 0.026674
-0.008551 -0.014636 0.026061
-0.008705 -0.015042 0.025749
-0.009163 -0.015185 0.026055
-0.008652 -0.014837 0.026381
-0.003630 -0.013357 0.027024
-0.008413 -0.014840 0.026260
-0.008557 -0.014479 0.025557
-0.000371 0.011869 0.025192
-0.008521 0.014725 0.025425
-0.009193 0.015143 0.026466
-0.000817 0.014567 0.025138
-0.009759 0.009027 0.027448
-0.008551 0.015008 0.026356
-0.008268 0.014750 0.025807
-0.008712 0.014730 0.026287
-0.008562 0.014939 0.025792
0.004286 -0.005072 0.003431
-0.006517 0.001663 0.003724
-0.005793 0.008041 -0.007612
0.000051 -0.004783 -0.002014
0.000864 -0.000780 -0.000003
-0.001940 0.000415 -0.003676
-0.006394 -0.003908 0.000403
0.001386 0.004608 -0.002755
0.000155 -0.000721 0.000011
0.001457 -0.002135 -0.002314
-0.001014 0.000702 -0.000078
0.003114 0.001104 0.005672
-0.000427 -0.006678 0.003766
0.000447 0.000461 -0.000662
0.001469 0.007653 -0.000194
-0.001308 -0.003996 0.005801
0.000151 0.000369 0.000026
-0.001866 -0.000261 -0.003528
-0.013336 -0.006509 -0.026123
-0.008639 -0.004349 -0.023617
-0.017487 -0.000343 -0.024996
-0.010453 0.007458 -0.027829
-0.017535 -0.000089 -0.024843
-0.017187 0.000199 -0.025566
-0.004942 -0.009087 -0.026719
-0.004338 -0.010945 -0.027751
-0.016771 -0.000507 -0.025253
0.000748 0.014026 -0.030349
0.010364 0.010372 -0.025255
0.008624 0.015323 -0.025917
-0.007531 0.014703 -0.025178
0.008368 0.014614 -0.025372
0.009076 0.015863 -0.026366
-0.010766 0.008255 -0.029417
0.011913 0.004993 -0.027682
0.008513 0.015952 -0.025090
0.000761 -0.005159 -0.029116
0.016253 -0.001881 -0.025922
0.008668 -0.014796 -0.025601
0.003298 -0.014471 -0.025751
0.012043 -0.008133 -0.024763
0.009062 -0.014284 -0.025287
0.011805 0.001641 -0.028432
0.008917 -0.015817 -0.026208
0.008879 -0.014047 -0.024235
0.014641 0.004644 0.026642
0.015019 -0.008070 0.030570
0.017017 -0.000852 0.024725
0.009492 -0.013471 0.025910
0.018073 -0.000120 0.025495
0.016769 -0.000441 0.025317
0.006870 0.001733 0.027253
0.004892 -0.010529 0.027586
0.017451 -0.000036 0.025159
-0.008869 -0.004990 0.026533
-0.012820 -0.009308 0.026684
-0.008726 -0.014792 0.026167
0.001070 -0.013027 0.027136
-0.008930 -0.015232 0.025901
-0.008651 -0.014523 0.024943
-0.004881 0.005241 0.026755
-0.016205 -0.001270 0.025748
-0.008887 -0.013894 0.024597
0.010782 0.010588 0.025751
-0.011699 0.005218 0.027008
-0.009195 0.015310 0.026570
-0.000074 0.014568 0.023970
-0.009983 0.008709 0.027265
-0.008568 0.015522 0.025270
0.006374 0.008732 0.028952
-0.008346 0.014629 0.024827
-0.009042 0.016000 0.025909
0.007113 -0.002070 -0.003935
0.004222 -0.000134 -0.000006
0.004678 0.008532 0.007774
-0.001393 -0.002074 0.002257
0.000854 -0.000487 -0.000008
-0.001430 0.000151 -0.002371
-0.000039 -0.000614 0.000009
0.000117 0.001581 0.003114
-0.001433 0.000066 -0.000016
0.001259 -0.001861 -0.003746
-0.000622 -0.000667 0.000001
0.000057 0.000765 0.000001
-0.004374 -0.005832 -0.003774
0.000471 0.002147 -0.002981
0.000954 0.000087 -0.000017
-0.000081 -0.001004 0.000001
-0.000217 0.000589 0.000039
0.001966 0.000385 0.003739
-0.013128 -0.006554 -0.025527
-0.015089 -0.008024 -0.031184
-0.016835 -0.000690 -0.025434
-0.017204 -0.000040 -0.026320
-0.017451 0.000085 -0.026259
-0.017331 -0.000216 -0.025806
-0.014484 0.004796 -0.026480
-0.016939 -0.000161 -0.025563
-0.017016 0.000148 -0.026266
0.000371 0.011870 -0.025193
0.009760 0.009027 -0.027448
0.008562 0.014940 -0.025792
0.008268 0.014750 -0.025807
0.008521 0.014726 -0.025425
0.008550 0.015009 -0.026356
0.000817 0.014568 -0.025138
0.008712 0.014731 -0.026287
0.009193 0.015144 -0.026466
0.008669 -0.004695 -0.026489
0.009163 -0.015186 -0.026055
0.008557 -0.014480 -0.025558
0.003630 -0.013357 -0.027025
0.012149 -0.008252 -0.026674
0.008652 -0.014837 -0.026380
0.008706 -0.015042 -0.025749
0.008413 -0.014841 -0.026260
0.008551 -0.014637 -0.026061
0.012544 0.003507 0.027361
0.007262 -0.004775 0.023746
0.017256 -0.000084 0.025731
0.017220 -0.000043 0.026261
0.016944 0.000027 0.025549
0.017043 -0.000057 0.026074
0.013000 -0.006493 0.025948
0.017824 0.000059 0.026336
0.017079 0.000085 0.026325
-0.012839 -0.008761 0.029383
-0.012299 -0.008095 0.024953
-0.008919 -0.014249 0.025511
-0.008744 -0.014944 0.025800
-0.008401 -0.015344 0.026359
-0.008707 -0.014847 0.026381
-0.002745 -0.014182 0.026936
-0.008317 -0.014861 0.026259
-0.008539 -0.014610 0.025484
-0.000122 0.014549 0.029679
-0.008233 0.014767 0.025512
-0.008510 0.015385 0.026080
-0.001033 0.014662 0.026422
-0.010683 0.010455 0.026659
-0.008561 0.014939 0.026411
-0.008136 0.014762 0.025718
-0.008669 0.014716 0.026229
-0.008586 0.015090 0.025815
0.007064 -0.001154 -0.004423
0.002929 0.000160 0.003426
0.003413 0.007977 0.008070
-0.000071 -0.005080 -0.003470
0.001090 -0.000649 -0.000009
-0.001405 0.000147 -0.002279
-0.006520 -0.003767 0.000534
0.001952 0.004057 -0.002623
-0.000330 -0.000733 -0.000021
0.001299 -0.001941 -0.003792
-0.000798 0.000484 -0.000105
0.003223 0.001062 0.005649
0.002003 -0.010295 -0.003992
-0.000006 0.000370 -0.000914
0.001120 0.007632 -0.000270
-0.001450 -0.003996 0.005778
-0.000271 0.000341 0.000112
-0.001293 -0.000187 -0.002208
-0.013435 -0.006581 -0.025733
-0.016562 -0.007871 -0.031133
-0.017285 -0.000937 -0.024385
-0.010472 0.007423 -0.027899
-0.017160 -0.000072 -0.024757
-0.017265 0.000078 -0.025637
-0.006954 -0.007985 -0.025822
-0.004274 -0.010802 -0.027797
-0.016713 -0.000431 -0.025192
0.001548 0.011410 -0.025985
0.009424 0.009023 -0.026070
0.008584 0.015184 -0.025893
-0.007413 0.014694 -0.025264
0.008666 0.014568 -0.025284
0.009043 0.015909 -0.026318
-0.010021 0.007228 -0.028309
0.011903 0.005053 -0.027741
0.009206 0.015701 -0.025475
-0.004179 0.000998 -0.026656
0.017004 -0.001708 -0.025552
0.008687 -0.014656 -0.025662
0.004158 -0.013695 -0.025811
0.011937 -0.008289 -0.026473
0.009015 -0.014266 -0.025262
0.011962 0.001646 -0.028367
0.009014 -0.015797 -0.026208
0.008519 -0.014455 -0.024773
0.012739 0.003327 0.027534
0.007173 -0.004389 0.023185
0.016951 -0.000693 0.024667
0.009489 -0.013467 0.025878
0.018078 0.000055 0.025475
0.016982 0.000204 0.025961
0.006821 0.001797 0.027583
0.005269 -0.011078 0.027630
0.017519 -0.000090 0.025218
-0.013357 -0.008995 0.029467
-0.012923 -0.009109 0.024858
-0.009097 -0.014400 0.025595
0.001076 -0.012972 0.027146
-0.008167 -0.015387 0.026202
-0.008711 -0.014523 0.024931
-0.002934 0.006018 0.027130
-0.016134 -0.001318 0.025737
-0.008885 -0.014044 0.024518
0.010037 0.012650 0.031244
-0.011419 0.005329 0.027098
-0.008489 0.015534 0.026194
-0.000271 0.014656 0.025258
-0.010870 0.010170 0.026458
-0.008562 0.015461 0.025324
0.006184 0.008684 0.028989
-0.008311 0.014609 0.024770
-0.009075 0.016173 0.025943
